{
  "code": 200,
  "message": "成功",
  "data": {
    "trademarkList": [
      {
        "tmId": 3,
        "tmName": "华为"
      },
      {
        "tmId": 1,
        "tmName": "小米"
      },
      {
        "tmId": 2,
        "tmName": "苹果"
      },
      {
        "tmId": 6,
        "tmName": "VIVO"
      },
      {
        "tmId": 5,
        "tmName": "OPPO"
      },
      {
        "tmId": 24,
        "tmName": "联想"
      },
      {
        "tmId": 26,
        "tmName": "海信"
      },
      {
        "tmId": 27,
        "tmName": "戴尔"
      }
    ],
    "attrsList": [
      {
        "attrId": 24,
        "attrValueList": ["128G", "256G", "32G", "512G", "64G"],
        "attrName": "机身内存"
      },
      {
        "attrId": 23,
        "attrValueList": ["8G", "4G", "6G", "12G", "3G"],
        "attrName": "运行内存"
      },
      {
        "attrId": 106,
        "attrValueList": ["安卓手机", "苹果手机"],
        "attrName": "手机一级"
      },
      {
        "attrId": 107,
        "attrValueList": ["小米", "苹果", "华为"],
        "attrName": "二级手机"
      },
      {
        "attrId": 25,
        "attrValueList": ["i5"],
        "attrName": "处理器"
      },
      {
        "attrId": 26,
        "attrValueList": ["14.0"],
        "attrName": "屏幕尺寸"
      },
      {
        "attrId": 111,
        "attrValueList": ["骁龙845", "麒麟990"],
        "attrName": "CPU型号"
      },
      {
        "attrId": 112,
        "attrValueList": ["6.85-6.94英寸", "6.55-6.64英寸", "6.65-6.74英寸"],
        "attrName": "屏幕尺寸"
      },
      {
        "attrId": 122,
        "attrValueList": ["轻薄笔记本"],
        "attrName": "类型"
      },
      {
        "attrId": 66,
        "attrValueList": ["15.6"],
        "attrName": "屏幕尺寸"
      }
    ],
    "goodsList": [
      {
        "id": 21,
        "defaultImg": "http://47.93.148.192:8080/group1/M00/02/DA/rBHu8mGxO7mAIZosAACYibCV0ks310.jpg",
        "title": "vivo S10 5G手机 8GB+256GB 青柠 超轻薄机身 前置4400万超清双摄 自然柔光人像 6nm旗舰芯片 拍照手机 青色",
        "price": 2424.0,
        "createTime": null,
        "tmId": null,
        "tmName": null,
        "category1Id": null,
        "category1Name": null,
        "category2Id": null,
        "category2Name": null,
        "category3Id": null,
        "category3Name": null,
        "hotScore": 0,
        "attrs": null
      },
      {
        "id": 20,
        "defaultImg": "http://47.93.148.192:8080/group1/M00/02/DB/rBHu8mGxPcKAZ_qwAAAaCuo69pQ498.jpg",
        "title": "vivo S10 Pro 5G手机 12GB+256GB 青柠 超轻薄机身 后置一亿像素 自然柔光人像 6nm旗舰芯片 拍照手机 蓝",
        "price": 2343.0,
        "createTime": null,
        "tmId": null,
        "tmName": null,
        "category1Id": null,
        "category1Name": null,
        "category2Id": null,
        "category2Name": null,
        "category3Id": null,
        "category3Name": null,
        "hotScore": 0,
        "attrs": null
      },
      {
        "id": 13,
        "defaultImg": "http://47.93.148.192:8080/group1/M00/00/02/rBHu8l-sklaALrngAAHGDqdpFtU741.jpg",
        "title": "华为 HUAWEI P40 麒麟990 5G SoC芯片 5000万超感知徕卡三摄 30倍数字变焦 6GB+128GB亮黑色全网通5G手机",
        "price": 4188.0,
        "createTime": null,
        "tmId": null,
        "tmName": null,
        "category1Id": null,
        "category1Name": null,
        "category2Id": null,
        "category2Name": null,
        "category3Id": null,
        "category3Name": null,
        "hotScore": 0,
        "attrs": null
      }
    ],
    "total": 41,
    "pageSize": 3,
    "pageNo": 1,
    "totalPages": 14
  },
  "ok": true
}
